hw2_ryw2109
================
Rita Wang
2024-10-02

### Question 0

    ## # A tibble: 1,868 × 32
    ##    Division Line    `Station Name` `Station Latitude` `Station Longitude` Route1
    ##    <chr>    <chr>   <chr>                       <dbl>               <dbl> <chr> 
    ##  1 BMT      4 Aven… 25th St                      40.7               -74.0 R     
    ##  2 BMT      4 Aven… 25th St                      40.7               -74.0 R     
    ##  3 BMT      4 Aven… 36th St                      40.7               -74.0 N     
    ##  4 BMT      4 Aven… 36th St                      40.7               -74.0 N     
    ##  5 BMT      4 Aven… 36th St                      40.7               -74.0 N     
    ##  6 BMT      4 Aven… 45th St                      40.6               -74.0 R     
    ##  7 BMT      4 Aven… 45th St                      40.6               -74.0 R     
    ##  8 BMT      4 Aven… 45th St                      40.6               -74.0 R     
    ##  9 BMT      4 Aven… 45th St                      40.6               -74.0 R     
    ## 10 BMT      4 Aven… 53rd St                      40.6               -74.0 R     
    ## # ℹ 1,858 more rows
    ## # ℹ 26 more variables: Route2 <chr>, Route3 <chr>, Route4 <chr>, Route5 <chr>,
    ## #   Route6 <chr>, Route7 <chr>, Route8 <dbl>, Route9 <dbl>, Route10 <dbl>,
    ## #   Route11 <dbl>, `Entrance Type` <chr>, Entry <chr>, `Exit Only` <chr>,
    ## #   Vending <chr>, Staffing <chr>, `Staff Hours` <chr>, ADA <lgl>,
    ## #   `ADA Notes` <chr>, `Free Crossover` <lgl>, `North South Street` <chr>,
    ## #   `East West Street` <chr>, Corner <chr>, `Entrance Latitude` <dbl>, …

    ## # A tibble: 653 × 16
    ##    Dumpster Month Year  Date                `Weight (tons)`
    ##       <dbl> <chr> <chr> <dttm>                        <dbl>
    ##  1        1 May   2014  2014-05-16 00:00:00            4.31
    ##  2        2 May   2014  2014-05-16 00:00:00            2.74
    ##  3        3 May   2014  2014-05-16 00:00:00            3.45
    ##  4        4 May   2014  2014-05-17 00:00:00            3.1 
    ##  5        5 May   2014  2014-05-17 00:00:00            4.06
    ##  6        6 May   2014  2014-05-20 00:00:00            2.71
    ##  7        7 May   2014  2014-05-21 00:00:00            1.91
    ##  8        8 May   2014  2014-05-28 00:00:00            3.7 
    ##  9        9 June  2014  2014-06-05 00:00:00            2.52
    ## 10       10 June  2014  2014-06-11 00:00:00            3.76
    ## # ℹ 643 more rows
    ## # ℹ 11 more variables: `Volume (cubic yards)` <dbl>, `Plastic Bottles` <dbl>,
    ## #   Polystyrene <dbl>, `Cigarette Butts` <dbl>, `Glass Bottles` <dbl>,
    ## #   `Plastic Bags` <dbl>, Wrappers <dbl>, `Sports Balls` <dbl>,
    ## #   `Homes Powered*` <dbl>, ...15 <lgl>, ...16 <lgl>

    ## # A tibble: 120 × 5
    ##    `Baker Name`     Series `Baker Age` `Baker Occupation`           Hometown    
    ##    <chr>             <dbl>       <dbl> <chr>                        <chr>       
    ##  1 Ali Imdad             4          25 Charity worker               Saltley, Bi…
    ##  2 Alice Fevronia       10          28 Geography teacher            Essex       
    ##  3 Alvin Magallanes      6          37 Nurse                        Bracknell, …
    ##  4 Amelia LeBruin       10          24 Fashion designer             Halifax     
    ##  5 Andrew Smyth          7          25 Aerospace engineer           Derby / Hol…
    ##  6 Annetha Mills         1          30 Midwife                      Essex       
    ##  7 Antony Amourdoux      9          30 Banker                       London      
    ##  8 Beca Lyne-Pirkis      4          31 Military Wives' Choir Singer Aldershot, …
    ##  9 Ben Frazer            2          31 Graphic Designer             Northampton 
    ## 10 Benjamina Ebuehi      7          23 Teaching assistant           South London
    ## # ℹ 110 more rows

    ## # A tibble: 548 × 5
    ##    Series Episode Baker     `Signature Bake`                      `Show Stopper`
    ##     <dbl>   <dbl> <chr>     <chr>                                 <chr>         
    ##  1      1       1 Annetha   "Light Jamaican Black Cakewith Straw… Red, White & …
    ##  2      1       1 David     "Chocolate Orange Cake"               Black Forest …
    ##  3      1       1 Edd       "Caramel Cinnamon and Banana Cake"    N/A           
    ##  4      1       1 Jasminder "Fresh Mango and Passion Fruit Hummi… N/A           
    ##  5      1       1 Jonathan  "Carrot Cake with Lime and Cream Che… Three Tiered …
    ##  6      1       1 Lea       "Cranberry and Pistachio Cakewith Or… Raspberries a…
    ##  7      1       1 Louise    "Carrot and Orange Cake"              Never Fail Ch…
    ##  8      1       1 Mark      "Sticky Marmalade Tea Loaf"           Heart-shaped …
    ##  9      1       1 Miranda   "Triple Layered Brownie Meringue Cak… Three Tiered …
    ## 10      1       1 Ruth      "Three Tiered Lemon Drizzle Cakewith… Classic Choco…
    ## # ℹ 538 more rows

    ## # A tibble: 1,138 × 5
    ##    ...1   ...2    ...3      ...4      IN = stayed in; OUT = Eliminated; STAR B…¹
    ##    <chr>  <chr>   <chr>     <chr>     <chr>                                     
    ##  1 <NA>   <NA>    <NA>      <NA>      <NA>                                      
    ##  2 series episode baker     technical result                                    
    ##  3 1      1       Annetha   2         IN                                        
    ##  4 1      1       David     3         IN                                        
    ##  5 1      1       Edd       1         IN                                        
    ##  6 1      1       Jasminder <NA>      IN                                        
    ##  7 1      1       Jonathan  9         IN                                        
    ##  8 1      1       Louise    <NA>      IN                                        
    ##  9 1      1       Miranda   8         IN                                        
    ## 10 1      1       Ruth      <NA>      IN                                        
    ## # ℹ 1,128 more rows
    ## # ℹ abbreviated name:
    ## #   ¹​`IN = stayed in; OUT = Eliminated; STAR BAKER = Star Baker; WINNER = Series Winner; Runner-up = Series Runner up; WD = withdrew`
…
